{
  "project_info": {
    "project_number": "552929678939",
    "project_id": "finalsapp-f0779",
    "storage_bucket": "finalsapp-f0779.appspot.com"
  },
  "client": [
    {
      "client_info": {
        "mobilesdk_app_id": "1:552929678939:android:704568e8fa2e73ad74d17e",
        "android_client_info": {
          "package_name": "com.example.loginaplication"
        }
      },
      "oauth_client": [
        {
          "client_id": "552929678939-k7fsgidffo04jb21ua87todd9c98efbp.apps.googleusercontent.com",
          "client_type": 3
        }
      ],
      "api_key": [
        {
          "current_key": "AIzaSyB6TOHN6C1kzIFXIc23itcSXKfSAhPcsJQ"
        }
      ],
      "services": {
        "appinvite_service": {
          "other_platform_oauth_client": [
            {
              "client_id": "552929678939-k7fsgidffo04jb21ua87todd9c98efbp.apps.googleusercontent.com",
              "client_type": 3
            }
          ]
        }
      }
    }
  ],
  "configuration_version": "1"
}